{
	"message": "Redaktionens val",
	"playlists": {
		"href": "https://api.spotify.com/v1/browse/featured-playlists?country=SE&locale=sv_se&timestamp=2014-10-23T09%3A00%3A00&offset=0&limit=10",
		"items": [
			{
				"collaborative": false,
				"description": "It's Hits - bästa och största hitsen just nu.",
				"external_urls": {
					"spotify": "https://open.spotify.com/playlist/37i9dQZF1DWTMYgB8TqtmR"
				},
				"href": "https://api.spotify.com/v1/playlists/37i9dQZF1DWTMYgB8TqtmR",
				"id": "37i9dQZF1DWTMYgB8TqtmR",
				"images": [
					{
						"height": null,
						"url": "https://i.scdn.co/image/ab67706f000000037c1882e0768785c608aea95b",
						"width": null
					}
				],
				"name": "It's Hits Sweden",
				"owner": {
					"display_name": "Spotify",
					"external_urls": {
						"spotify": "https://open.spotify.com/user/spotify"
					},
					"href": "https://api.spotify.com/v1/users/spotify",
					"id": "spotify",
					"type": "user",
					"uri": "spotify:user:spotify"
				},
				"primary_color": null,
				"public": null,
				"snapshot_id": "MTYxMDM3NTc2OCwwMDAwMDQ3ODAwMDAwMTc2ZjFlMDI4YWUwMDAwMDE3NmUxNmEzMDkx",
				"tracks": {
					"href": "https://api.spotify.com/v1/playlists/37i9dQZF1DWTMYgB8TqtmR/tracks",
					"total": 50
				},
				"type": "playlist",
				"uri": "spotify:playlist:37i9dQZF1DWTMYgB8TqtmR"
			},
			{
				"collaborative": false,
				"description": "Favoritlåtar för lugna och sköna stunder.",
				"external_urls": {
					"spotify": "https://open.spotify.com/playlist/37i9dQZF1DX4Umko6nOmN7"
				},
				"href": "https://api.spotify.com/v1/playlists/37i9dQZF1DX4Umko6nOmN7",
				"id": "37i9dQZF1DX4Umko6nOmN7",
				"images": [
					{
						"height": null,
						"url": "https://i.scdn.co/image/ab67706f000000031f65c8dbb5ce549ff2cabdc9",
						"width": null
					}
				],
				"name": "Lugnt & Skönt",
				"owner": {
					"display_name": "Spotify",
					"external_urls": {
						"spotify": "https://open.spotify.com/user/spotify"
					},
					"href": "https://api.spotify.com/v1/users/spotify",
					"id": "spotify",
					"type": "user",
					"uri": "spotify:user:spotify"
				},
				"primary_color": null,
				"public": null,
				"snapshot_id": "MTYxMDQxNTUzNywwMDAwMDAwMGQ0MWQ4Y2Q5OGYwMGIyMDRlOTgwMDk5OGVjZjg0Mjdl",
				"tracks": {
					"href": "https://api.spotify.com/v1/playlists/37i9dQZF1DX4Umko6nOmN7/tracks",
					"total": 100
				},
				"type": "playlist",
				"uri": "spotify:playlist:37i9dQZF1DX4Umko6nOmN7"
			},
			{
				"collaborative": false,
				"description": "Nya och gamla pepplåtar som gör livet värt att leva!",
				"external_urls": {
					"spotify": "https://open.spotify.com/playlist/37i9dQZF1DX1y2vWSgwjbV"
				},
				"href": "https://api.spotify.com/v1/playlists/37i9dQZF1DX1y2vWSgwjbV",
				"id": "37i9dQZF1DX1y2vWSgwjbV",
				"images": [
					{
						"height": null,
						"url": "https://i.scdn.co/image/ab67706f000000034dc98644bc6a8359d16180a6",
						"width": null
					}
				],
				"name": "Life is good!",
				"owner": {
					"display_name": "Spotify",
					"external_urls": {
						"spotify": "https://open.spotify.com/user/spotify"
					},
					"href": "https://api.spotify.com/v1/users/spotify",
					"id": "spotify",
					"type": "user",
					"uri": "spotify:user:spotify"
				},
				"primary_color": null,
				"public": null,
				"snapshot_id": "MTYxMDQxNTUzOCwwMDAwMDAwMGQ0MWQ4Y2Q5OGYwMGIyMDRlOTgwMDk5OGVjZjg0Mjdl",
				"tracks": {
					"href": "https://api.spotify.com/v1/playlists/37i9dQZF1DX1y2vWSgwjbV/tracks",
					"total": 80
				},
				"type": "playlist",
				"uri": "spotify:playlist:37i9dQZF1DX1y2vWSgwjbV"
			},
			{
				"collaborative": false,
				"description": "De senaste hitsen du behöver ha koll på.",
				"external_urls": {
					"spotify": "https://open.spotify.com/playlist/37i9dQZF1DXc4CrXgl8cum"
				},
				"href": "https://api.spotify.com/v1/playlists/37i9dQZF1DXc4CrXgl8cum",
				"id": "37i9dQZF1DXc4CrXgl8cum",
				"images": [
					{
						"height": null,
						"url": "https://i.scdn.co/image/ab67706f00000003436834dfb919b164fd908267",
						"width": null
					}
				],
				"name": "Get Your Hits Together",
				"owner": {
					"display_name": "Spotify",
					"external_urls": {
						"spotify": "https://open.spotify.com/user/spotify"
					},
					"href": "https://api.spotify.com/v1/users/spotify",
					"id": "spotify",
					"type": "user",
					"uri": "spotify:user:spotify"
				},
				"primary_color": null,
				"public": null,
				"snapshot_id": "MTYxMDQxNTU0MiwwMDAwMDAwMGQ0MWQ4Y2Q5OGYwMGIyMDRlOTgwMDk5OGVjZjg0Mjdl",
				"tracks": {
					"href": "https://api.spotify.com/v1/playlists/37i9dQZF1DXc4CrXgl8cum/tracks",
					"total": 80
				},
				"type": "playlist",
				"uri": "spotify:playlist:37i9dQZF1DXc4CrXgl8cum"
			},
			{
				"collaborative": false,
				"description": "De nya och största rockhitsen just nu!",
				"external_urls": {
					"spotify": "https://open.spotify.com/playlist/37i9dQZF1DXdiF2k2CLnQA"
				},
				"href": "https://api.spotify.com/v1/playlists/37i9dQZF1DXdiF2k2CLnQA",
				"id": "37i9dQZF1DXdiF2k2CLnQA",
				"images": [
					{
						"height": null,
						"url": "https://i.scdn.co/image/ab67706f00000003bca9a6ffceb869c51f42120f",
						"width": null
					}
				],
				"name": "Rock Idag",
				"owner": {
					"display_name": "Spotify",
					"external_urls": {
						"spotify": "https://open.spotify.com/user/spotify"
					},
					"href": "https://api.spotify.com/v1/users/spotify",
					"id": "spotify",
					"type": "user",
					"uri": "spotify:user:spotify"
				},
				"primary_color": null,
				"public": null,
				"snapshot_id": "MTYxMDQxNTQ5MiwwMDAwMDAwMGQ0MWQ4Y2Q5OGYwMGIyMDRlOTgwMDk5OGVjZjg0Mjdl",
				"tracks": {
					"href": "https://api.spotify.com/v1/playlists/37i9dQZF1DXdiF2k2CLnQA/tracks",
					"total": 70
				},
				"type": "playlist",
				"uri": "spotify:playlist:37i9dQZF1DXdiF2k2CLnQA"
			},
			{
				"collaborative": false,
				"description": "Tropical House som får dig att känna sanden mellan tårna.",
				"external_urls": {
					"spotify": "https://open.spotify.com/playlist/37i9dQZF1DWVUxkQFrGCkK"
				},
				"href": "https://api.spotify.com/v1/playlists/37i9dQZF1DWVUxkQFrGCkK",
				"id": "37i9dQZF1DWVUxkQFrGCkK",
				"images": [
					{
						"height": null,
						"url": "https://i.scdn.co/image/ab67706f00000003293d88eced8c61e888f8df93",
						"width": null
					}
				],
				"name": "Tropisk House",
				"owner": {
					"display_name": "Spotify",
					"external_urls": {
						"spotify": "https://open.spotify.com/user/spotify"
					},
					"href": "https://api.spotify.com/v1/users/spotify",
					"id": "spotify",
					"type": "user",
					"uri": "spotify:user:spotify"
				},
				"primary_color": null,
				"public": null,
				"snapshot_id": "MTYxMDQxNTQ5MSwwMDAwMDAwMGQ0MWQ4Y2Q5OGYwMGIyMDRlOTgwMDk5OGVjZjg0Mjdl",
				"tracks": {
					"href": "https://api.spotify.com/v1/playlists/37i9dQZF1DWVUxkQFrGCkK/tracks",
					"total": 100
				},
				"type": "playlist",
				"uri": "spotify:playlist:37i9dQZF1DWVUxkQFrGCkK"
			},
			{
				"collaborative": false,
				"description": "Welcome to the Nordic queendom of pop. Cover: Tove Lo",
				"external_urls": {
					"spotify": "https://open.spotify.com/playlist/37i9dQZF1DX3JcVtdd4I4E"
				},
				"href": "https://api.spotify.com/v1/playlists/37i9dQZF1DX3JcVtdd4I4E",
				"id": "37i9dQZF1DX3JcVtdd4I4E",
				"images": [
					{
						"height": null,
						"url": "https://i.scdn.co/image/ab67706f00000003e29527fa6130a916e838796c",
						"width": null
					}
				],
				"name": "GRL PWR",
				"owner": {
					"display_name": "Spotify",
					"external_urls": {
						"spotify": "https://open.spotify.com/user/spotify"
					},
					"href": "https://api.spotify.com/v1/users/spotify",
					"id": "spotify",
					"type": "user",
					"uri": "spotify:user:spotify"
				},
				"primary_color": null,
				"public": null,
				"snapshot_id": "MTYxMDQxNTUzOSwwMDAwMDAwMGQ0MWQ4Y2Q5OGYwMGIyMDRlOTgwMDk5OGVjZjg0Mjdl",
				"tracks": {
					"href": "https://api.spotify.com/v1/playlists/37i9dQZF1DX3JcVtdd4I4E/tracks",
					"total": 70
				},
				"type": "playlist",
				"uri": "spotify:playlist:37i9dQZF1DX3JcVtdd4I4E"
			},
			{
				"collaborative": false,
				"description": "Hitsen du känner igen från de senaste åren.",
				"external_urls": {
					"spotify": "https://open.spotify.com/playlist/37i9dQZF1DWX4OQBd6GoaY"
				},
				"href": "https://api.spotify.com/v1/playlists/37i9dQZF1DWX4OQBd6GoaY",
				"id": "37i9dQZF1DWX4OQBd6GoaY",
				"images": [
					{
						"height": null,
						"url": "https://i.scdn.co/image/ab67706f00000003c4578910f6d383310ba84b45",
						"width": null
					}
				],
				"name": "Hit Replay Sweden",
				"owner": {
					"display_name": "Spotify",
					"external_urls": {
						"spotify": "https://open.spotify.com/user/spotify"
					},
					"href": "https://api.spotify.com/v1/users/spotify",
					"id": "spotify",
					"type": "user",
					"uri": "spotify:user:spotify"
				},
				"primary_color": null,
				"public": null,
				"snapshot_id": "MTYxMDQxNTU0MiwwMDAwMDAwMGQ0MWQ4Y2Q5OGYwMGIyMDRlOTgwMDk5OGVjZjg0Mjdl",
				"tracks": {
					"href": "https://api.spotify.com/v1/playlists/37i9dQZF1DWX4OQBd6GoaY/tracks",
					"total": 50
				},
				"type": "playlist",
				"uri": "spotify:playlist:37i9dQZF1DWX4OQBd6GoaY"
			},
			{
				"collaborative": false,
				"description": "Nurse your emotional wounds with these heartbreak tracks.",
				"external_urls": {
					"spotify": "https://open.spotify.com/playlist/37i9dQZF1DXbrUpGvoi3TS"
				},
				"href": "https://api.spotify.com/v1/playlists/37i9dQZF1DXbrUpGvoi3TS",
				"id": "37i9dQZF1DXbrUpGvoi3TS",
				"images": [
					{
						"height": null,
						"url": "https://i.scdn.co/image/ab67706f0000000350f34f0e7a0b73effe02fa6f",
						"width": null
					}
				],
				"name": "Broken Heart",
				"owner": {
					"display_name": "Spotify",
					"external_urls": {
						"spotify": "https://open.spotify.com/user/spotify"
					},
					"href": "https://api.spotify.com/v1/users/spotify",
					"id": "spotify",
					"type": "user",
					"uri": "spotify:user:spotify"
				},
				"primary_color": null,
				"public": null,
				"snapshot_id": "MTYxMDQxNTUxNiwwMDAwMDAwMGQ0MWQ4Y2Q5OGYwMGIyMDRlOTgwMDk5OGVjZjg0Mjdl",
				"tracks": {
					"href": "https://api.spotify.com/v1/playlists/37i9dQZF1DXbrUpGvoi3TS/tracks",
					"total": 100
				},
				"type": "playlist",
				"uri": "spotify:playlist:37i9dQZF1DXbrUpGvoi3TS"
			},
			{
				"collaborative": false,
				"description": "Från norra till södra. Det här är svensk rap.",
				"external_urls": {
					"spotify": "https://open.spotify.com/playlist/37i9dQZF1DX5cpU86I7OAy"
				},
				"href": "https://api.spotify.com/v1/playlists/37i9dQZF1DX5cpU86I7OAy",
				"id": "37i9dQZF1DX5cpU86I7OAy",
				"images": [
					{
						"height": null,
						"url": "https://i.scdn.co/image/ab67706f00000003698a55c458139f4046edab67",
						"width": null
					}
				],
				"name": "Svensk Rap",
				"owner": {
					"display_name": "Spotify",
					"external_urls": {
						"spotify": "https://open.spotify.com/user/spotify"
					},
					"href": "https://api.spotify.com/v1/users/spotify",
					"id": "spotify",
					"type": "user",
					"uri": "spotify:user:spotify"
				},
				"primary_color": null,
				"public": null,
				"snapshot_id": "MTYxMDQxNTUzMCwwMDAwMDAwMGQ0MWQ4Y2Q5OGYwMGIyMDRlOTgwMDk5OGVjZjg0Mjdl",
				"tracks": {
					"href": "https://api.spotify.com/v1/playlists/37i9dQZF1DX5cpU86I7OAy/tracks",
					"total": 70
				},
				"type": "playlist",
				"uri": "spotify:playlist:37i9dQZF1DX5cpU86I7OAy"
			}
		],
		"limit": 10,
		"next": "https://api.spotify.com/v1/browse/featured-playlists?country=SE&locale=sv_se&timestamp=2014-10-23T09%3A00%3A00&offset=10&limit=10",
		"offset": 0,
		"previous": null,
		"total": 12
	}
}