{
	"categories": {
		"href": "https://api.spotify.com/v1/browse/categories?country=SE&offset=0&limit=20",
		"limit": 20,
		"next": "https://api.spotify.com/v1/browse/categories?country=SE&offset=20&limit=20",
		"offset": 0,
		"previous": null,
		"total": 41,
		"items": [
			{
				"href": "https://api.spotify.com/v1/browse/categories/toplists",
				"icons": [
					{
						"height": 275,
						"url": "https://t.scdn.co/media/derived/toplists_11160599e6a04ac5d6f2757f5511778f_0_0_275_275.jpg",
						"width": 275
					}
				],
				"id": "toplists",
				"name": "Topplistor"
			},
			{
				"href": "https://api.spotify.com/v1/browse/categories/2020",
				"icons": [
					{
						"height": null,
						"url": "https://t.scdn.co/images/a81ea7bba0f644d698e291875f06ecc2",
						"width": null
					}
				],
				"id": "2020",
				"name": "2020 Wrapped"
			},
			{
				"href": "https://api.spotify.com/v1/browse/categories/pop",
				"icons": [
					{
						"height": 274,
						"url": "https://t.scdn.co/media/derived/pop-274x274_447148649685019f5e2a03a39e78ba52_0_0_274_274.jpg",
						"width": 274
					}
				],
				"id": "pop",
				"name": "Pop"
			},
			{
				"href": "https://api.spotify.com/v1/browse/categories/hiphop",
				"icons": [
					{
						"height": 274,
						"url": "https://t.scdn.co/media/original/hip-274_0a661854d61e29eace5fe63f73495e68_274x274.jpg",
						"width": 274
					}
				],
				"id": "hiphop",
				"name": "Hip Hop"
			},
			{
				"href": "https://api.spotify.com/v1/browse/categories/mood",
				"icons": [
					{
						"height": 274,
						"url": "https://t.scdn.co/media/original/mood-274x274_976986a31ac8c49794cbdc7246fd5ad7_274x274.jpg",
						"width": 274
					}
				],
				"id": "mood",
				"name": "Humör"
			},
			{
				"href": "https://api.spotify.com/v1/browse/categories/holidays",
				"icons": [
					{
						"height": null,
						"url": "https://t.scdn.co/images/dec76a385201436281efb6796a54f479.jpeg",
						"width": null
					}
				],
				"id": "holidays",
				"name": "Julmusik"
			},
			{
				"href": "https://api.spotify.com/v1/browse/categories/indie_alt",
				"icons": [
					{
						"height": null,
						"url": "https://t.scdn.co/images/fe06caf056474bc58862591cd60b57fc.jpeg",
						"width": null
					}
				],
				"id": "indie_alt",
				"name": "Indie"
			},
			{
				"href": "https://api.spotify.com/v1/browse/categories/at_home",
				"icons": [
					{
						"height": null,
						"url": "https://t.scdn.co/images/04da469dd7be4dab96659aa1fa9f0ac9.jpeg",
						"width": null
					}
				],
				"id": "at_home",
				"name": "Hemma"
			},
			{
				"href": "https://api.spotify.com/v1/browse/categories/chill",
				"icons": [
					{
						"height": 274,
						"url": "https://t.scdn.co/media/derived/chill-274x274_4c46374f007813dd10b37e8d8fd35b4b_0_0_274_274.jpg",
						"width": 274
					}
				],
				"id": "chill",
				"name": "Chill"
			},
			{
				"href": "https://api.spotify.com/v1/browse/categories/wellness",
				"icons": [
					{
						"height": null,
						"url": "https://t.scdn.co/images/2adf91e7179a4e098834d630c74824b1.jpeg",
						"width": null
					}
				],
				"id": "wellness",
				"name": "Välmående"
			},
			{
				"href": "https://api.spotify.com/v1/browse/categories/decades",
				"icons": [
					{
						"height": null,
						"url": "https://t.scdn.co/images/b611cf5145764c64b80e91ccd5f357c8",
						"width": null
					}
				],
				"id": "decades",
				"name": "Årtionden"
			},
			{
				"href": "https://api.spotify.com/v1/browse/categories/rnb",
				"icons": [
					{
						"height": 274,
						"url": "https://t.scdn.co/media/derived/r-b-274x274_fd56efa72f4f63764b011b68121581d8_0_0_274_274.jpg",
						"width": 274
					}
				],
				"id": "rnb",
				"name": "R&B"
			},
			{
				"href": "https://api.spotify.com/v1/browse/categories/edm_dance",
				"icons": [
					{
						"height": 274,
						"url": "https://t.scdn.co/media/derived/edm-274x274_0ef612604200a9c14995432994455a6d_0_0_274_274.jpg",
						"width": 274
					}
				],
				"id": "edm_dance",
				"name": "Dance/Electronic"
			},
			{
				"href": "https://api.spotify.com/v1/browse/categories/rock",
				"icons": [
					{
						"height": 274,
						"url": "https://t.scdn.co/media/derived/rock_9ce79e0a4ef901bbd10494f5b855d3cc_0_0_274_274.jpg",
						"width": 274
					}
				],
				"id": "rock",
				"name": "Rock"
			},
			{
				"href": "https://api.spotify.com/v1/browse/categories/workout",
				"icons": [
					{
						"height": null,
						"url": "https://t.scdn.co/media/links/workout-274x274.jpg",
						"width": null
					}
				],
				"id": "workout",
				"name": "Träning"
			},
			{
				"href": "https://api.spotify.com/v1/browse/categories/blackhistorymonth",
				"icons": [
					{
						"height": null,
						"url": "https://t.scdn.co/images/519576e01b61450390234a623c97aa9a.jpeg",
						"width": null
					}
				],
				"id": "blackhistorymonth",
				"name": "Black History Is Now"
			},
			{
				"href": "https://api.spotify.com/v1/browse/categories/family",
				"icons": [
					{
						"height": null,
						"url": "https://t.scdn.co/images/4ebb98ae04d34698a3a1ac4252c69ac6.jpeg",
						"width": null
					}
				],
				"id": "family",
				"name": "Barn och familj"
			},
			{
				"href": "https://api.spotify.com/v1/browse/categories/metal",
				"icons": [
					{
						"height": 274,
						"url": "https://t.scdn.co/media/original/metal_27c921443fd0a5ba95b1b2c2ae654b2b_274x274.jpg",
						"width": 274
					}
				],
				"id": "metal",
				"name": "Metal"
			},
			{
				"href": "https://api.spotify.com/v1/browse/categories/dinner",
				"icons": [
					{
						"height": 274,
						"url": "https://t.scdn.co/media/original/dinner_1b6506abba0ba52c54e6d695c8571078_274x274.jpg",
						"width": 274
					}
				],
				"id": "dinner",
				"name": "Matlagning och middag"
			},
			{
				"href": "https://api.spotify.com/v1/browse/categories/thirdparty",
				"icons": [
					{
						"height": null,
						"url": "https://t.scdn.co/images/b4182906bf244b4994805084c057e9ee.jpeg",
						"width": null
					}
				],
				"id": "thirdparty",
				"name": "Trendsättare"
			}
		]
	}
}