{
	"artists": {
		"href": "https://api.spotify.com/v1/search?query=holiday&type=artist&market=SE&offset=0&limit=5",
		"limit": 5,
		"next": "https://api.spotify.com/v1/search?query=holiday&type=artist&market=SE&offset=5&limit=5",
		"offset": 0,
		"previous": null,
		"total": 1037,
		"items": [
			{
				"external_urls": {
					"spotify": "https://open.spotify.com/artist/6IxjXsaqZ81Fi1HiwRq4LS"
				},
				"followers": {
					"href": null,
					"total": 719
				},
				"genres": [
					"indie dream pop"
				],
				"href": "https://api.spotify.com/v1/artists/6IxjXsaqZ81Fi1HiwRq4LS",
				"id": "6IxjXsaqZ81Fi1HiwRq4LS",
				"images": [
					{
						"height": 640,
						"url": "https://i.scdn.co/image/33b0bc585de8e0d9dfe14e0b0a4a360f43759a26",
						"width": 640
					},
					{
						"height": 320,
						"url": "https://i.scdn.co/image/967c323dd3753e6f6919b9195656a69490ee9ce6",
						"width": 320
					},
					{
						"height": 160,
						"url": "https://i.scdn.co/image/e71f2866dceee52bedf1caf7c0fd35364640993f",
						"width": 160
					}
				],
				"name": "Holidays",
				"popularity": 21,
				"type": "artist",
				"uri": "spotify:artist:6IxjXsaqZ81Fi1HiwRq4LS"
			},
			{
				"external_urls": {
					"spotify": "https://open.spotify.com/artist/1YzCsTRb22dQkh9lghPIrp"
				},
				"followers": {
					"href": null,
					"total": 1335811
				},
				"genres": [
					"adult standards",
					"harlem renaissance",
					"jazz blues",
					"lounge",
					"soul",
					"torch song",
					"vocal jazz"
				],
				"href": "https://api.spotify.com/v1/artists/1YzCsTRb22dQkh9lghPIrp",
				"id": "1YzCsTRb22dQkh9lghPIrp",
				"images": [
					{
						"height": 828,
						"url": "https://i.scdn.co/image/4efa6b6871a0f672b78b3d16fd5a03c6cd212d58",
						"width": 1000
					},
					{
						"height": 530,
						"url": "https://i.scdn.co/image/11f685f3011fd163c386ce1afe7ce543ad814817",
						"width": 640
					},
					{
						"height": 166,
						"url": "https://i.scdn.co/image/0f472c69891d82d5049f7de35426b2fdeb6051c0",
						"width": 200
					},
					{
						"height": 53,
						"url": "https://i.scdn.co/image/73b9538798c13c7be7558d69b02019cf19e1d5db",
						"width": 64
					}
				],
				"name": "Billie Holiday",
				"popularity": 69,
				"type": "artist",
				"uri": "spotify:artist:1YzCsTRb22dQkh9lghPIrp"
			},
			{
				"external_urls": {
					"spotify": "https://open.spotify.com/artist/5D9NYfOaGxFKCalJIeia1N"
				},
				"followers": {
					"href": null,
					"total": 506
				},
				"genres": [],
				"href": "https://api.spotify.com/v1/artists/5D9NYfOaGxFKCalJIeia1N",
				"id": "5D9NYfOaGxFKCalJIeia1N",
				"images": [
					{
						"height": 640,
						"url": "https://i.scdn.co/image/1aa266a1fa4595101aaf65fdf863396d4394c1e6",
						"width": 640
					},
					{
						"height": 320,
						"url": "https://i.scdn.co/image/021102db7120d0f8c2ce92100c779d26fe3cb915",
						"width": 320
					},
					{
						"height": 160,
						"url": "https://i.scdn.co/image/f2ccae4d7c9b284145943d4746fb9963adf5d7ee",
						"width": 160
					}
				],
				"name": "Atlantic Holiday",
				"popularity": 66,
				"type": "artist",
				"uri": "spotify:artist:5D9NYfOaGxFKCalJIeia1N"
			},
			{
				"external_urls": {
					"spotify": "https://open.spotify.com/artist/1baSwsjjhEUkDzXPho77Hf"
				},
				"followers": {
					"href": null,
					"total": 127
				},
				"genres": [],
				"href": "https://api.spotify.com/v1/artists/1baSwsjjhEUkDzXPho77Hf",
				"id": "1baSwsjjhEUkDzXPho77Hf",
				"images": [
					{
						"height": 640,
						"url": "https://i.scdn.co/image/a1b58bfee3baed921cd3a5816940e8738c808101",
						"width": 640
					},
					{
						"height": 320,
						"url": "https://i.scdn.co/image/f29078586068d90ebf1d2ad3217b6bcb6528342f",
						"width": 320
					},
					{
						"height": 160,
						"url": "https://i.scdn.co/image/1979e8f9e75770d3a1ad80ea2f8acaa3ad15b197",
						"width": 160
					}
				],
				"name": "Holiday Jazz Ensemble",
				"popularity": 48,
				"type": "artist",
				"uri": "spotify:artist:1baSwsjjhEUkDzXPho77Hf"
			},
			{
				"external_urls": {
					"spotify": "https://open.spotify.com/artist/64yON9pK0j392YkionGKAF"
				},
				"followers": {
					"href": null,
					"total": 18156
				},
				"genres": [],
				"href": "https://api.spotify.com/v1/artists/64yON9pK0j392YkionGKAF",
				"id": "64yON9pK0j392YkionGKAF",
				"images": [
					{
						"height": 640,
						"url": "https://i.scdn.co/image/ab67616d0000b27395489a41fb07013948cddefe",
						"width": 640
					},
					{
						"height": 300,
						"url": "https://i.scdn.co/image/ab67616d00001e0295489a41fb07013948cddefe",
						"width": 300
					},
					{
						"height": 64,
						"url": "https://i.scdn.co/image/ab67616d0000485195489a41fb07013948cddefe",
						"width": 64
					}
				],
				"name": "Jack Holiday",
				"popularity": 55,
				"type": "artist",
				"uri": "spotify:artist:64yON9pK0j392YkionGKAF"
			}
		]
	}
}