{
	"href": "https://api.spotify.com/v1/playlists/4Wqhmyri54LKWet5NmrIRY/tracks?offset=0&limit=1&market=ES",
	"items": [
		{
			"added_at": "2012-05-24T13:45:07Z",
			"added_by": {
				"external_urls": {
					"spotify": "https://open.spotify.com/user/"
				},
				"href": "https://api.spotify.com/v1/users/",
				"id": "",
				"type": "user",
				"uri": "spotify:user:"
			},
			"is_local": false,
			"primary_color": null,
			"track": {
				"album": {
					"album_type": "album",
					"artists": [
						{
							"external_urls": {
								"spotify": "https://open.spotify.com/artist/1k8VBufn1nBs8LN9n4snc8"
							},
							"href": "https://api.spotify.com/v1/artists/1k8VBufn1nBs8LN9n4snc8",
							"id": "1k8VBufn1nBs8LN9n4snc8",
							"name": "Stereo MC's",
							"type": "artist",
							"uri": "spotify:artist:1k8VBufn1nBs8LN9n4snc8"
						}
					],
					"external_urls": {
						"spotify": "https://open.spotify.com/album/3NRQnGdFznbXtP8u2O4VKB"
					},
					"href": "https://api.spotify.com/v1/albums/3NRQnGdFznbXtP8u2O4VKB",
					"id": "3NRQnGdFznbXtP8u2O4VKB",
					"images": [
						{
							"height": 640,
							"url": "https://i.scdn.co/image/ab67616d0000b27342f3ccbc77ffa9a06e6e92d1",
							"width": 640
						},
						{
							"height": 300,
							"url": "https://i.scdn.co/image/ab67616d00001e0242f3ccbc77ffa9a06e6e92d1",
							"width": 300
						},
						{
							"height": 64,
							"url": "https://i.scdn.co/image/ab67616d0000485142f3ccbc77ffa9a06e6e92d1",
							"width": 64
						}
					],
					"name": "Connected",
					"release_date": "1992-01-01",
					"release_date_precision": "day",
					"total_tracks": 12,
					"type": "album",
					"uri": "spotify:album:3NRQnGdFznbXtP8u2O4VKB"
				},
				"artists": [
					{
						"external_urls": {
							"spotify": "https://open.spotify.com/artist/1k8VBufn1nBs8LN9n4snc8"
						},
						"href": "https://api.spotify.com/v1/artists/1k8VBufn1nBs8LN9n4snc8",
						"id": "1k8VBufn1nBs8LN9n4snc8",
						"name": "Stereo MC's",
						"type": "artist",
						"uri": "spotify:artist:1k8VBufn1nBs8LN9n4snc8"
					}
				],
				"disc_number": 1,
				"duration_ms": 252666,
				"episode": false,
				"explicit": false,
				"external_ids": {
					"isrc": "GBAAN9290024"
				},
				"external_urls": {
					"spotify": "https://open.spotify.com/track/1UgsbIteej4QpAcX3aUFeV"
				},
				"href": "https://api.spotify.com/v1/tracks/1UgsbIteej4QpAcX3aUFeV",
				"id": "1UgsbIteej4QpAcX3aUFeV",
				"is_local": false,
				"is_playable": true,
				"linked_from": {
					"external_urls": {
						"spotify": "https://open.spotify.com/track/51qiMz9lvTm7kaZlMyMeZi"
					},
					"href": "https://api.spotify.com/v1/tracks/51qiMz9lvTm7kaZlMyMeZi",
					"id": "51qiMz9lvTm7kaZlMyMeZi",
					"type": "track",
					"uri": "spotify:track:51qiMz9lvTm7kaZlMyMeZi"
				},
				"name": "Ground Level",
				"popularity": 36,
				"preview_url": "https://p.scdn.co/mp3-preview/95281ad424b0e6e72bb0b37e17d5389aa3d6052e?cid=774b29d4f13844c495f206cafdad9c86",
				"track": true,
				"track_number": 2,
				"type": "track",
				"uri": "spotify:track:1UgsbIteej4QpAcX3aUFeV"
			},
			"video_thumbnail": {
				"url": null
			}
		}
	],
	"limit": 1,
	"next": "https://api.spotify.com/v1/playlists/4Wqhmyri54LKWet5NmrIRY/tracks?offset=1&limit=1&market=ES",
	"offset": 0,
	"previous": null,
	"total": 583
}